Exploratory Data Analysis Project - Priyanka Reddy (pgr363)
…
joindat %>% group_by(top.genre) %>% summarize_if(is.numeric, 
    .funs = list(mean = mean, median = median, sd = sd, var = var, 
        min = min, max = max), na.rm = T) %>% pivot_longer(c(-1), 
    values_to = "values", names_to = "stat") %>% separate(stat, 
    sep = "_", into = c("variable", "stat")) %>% pivot_wider(names_from = "variable", 
    values_from = "values")  #summary stats when grouped by genre of song (categorical variable)

## # A tibble: 300 x 10
##    top.genre   stat  height.m weight.kg  salary    year   bpm     dB   dur   bmi
##    <fct>       <chr>    <dbl>     <dbl>   <dbl>   <dbl> <dbl>  <dbl> <dbl> <dbl>
##  1 acoustic p… mean   2.00        95.7  1.38e 7 2.01e+3 160.   -5.66 235.  24.0 
##  2 acoustic p… medi…  2.00        94.6  1.30e 7 2.01e+3 185    -4    221   23.8 
##  3 acoustic p… sd     0.0897      10.0  1.01e 7 9.94e-1  29.8   1.99  16.9  1.45
##  4 acoustic p… var    0.00804    100.   1.02e14 9.87e-1 889.    3.95 285.   2.09
##  5 acoustic p… min    1.75        77.1  1.45e 6 2.01e+3 125    -8    221   20.8 
##  6 acoustic p… max    2.16       119.   3.27e 7 2.01e+3 185    -4    255   27.5 
##  7 alaska ind… mean   2.01        95.7  1.14e 7 2.01e+3 132   -11    250   23.7 
##  8 alaska ind… medi…  1.98        93.4  1.10e 7 2.01e+3 132   -11    250   23.6 
##  9 alaska ind… sd     0.0879       9.68 8.46e 6 0.        0     0      0    1.14
## 10 alaska ind… var    0.00773     93.6  7.15e13 0.        0     0      0    1.30
## # … with 290 more rows
…
4. Visualizing

tidycor <- cormat %>% as.data.frame %>% rownames_to_column("var1") %>% 
    pivot_longer(-1, names_to = "var2", values_to = "correlation")
tidycor

## # A tibble: 64 x 3
##    var1      var2      correlation
##    <chr>     <chr>           <dbl>
##  1 height.m  height.m     1       
##  2 height.m  weight.kg    0.720   
##  3 height.m  salary       0.0966  
##  4 height.m  year        -0.0490  
##  5 height.m  bpm          0.00843 
##  6 height.m  dB           0.000191
##  7 height.m  dur          0.00852 
##  8 height.m  bmi         -0.104   
##  9 weight.kg height.m     0.720   
## 10 weight.kg weight.kg    1       
## # … with 54 more rows
…
